curl 'https://mobile.tyrantonline.com/api.php?message=playCard&user_id=12562342' -H 'Origin: http://game208033.konggames.com' -H 'Accept-Encoding: gzip, deflate, br' -H 'Accept-Language: en-US,en;q=0.8' -H 'User-Agent: Mozilla/5.0 (Macintosh; Intel Mac OS X 10_12_6) AppleWebKit/537.36 (KHTML, like Gecko) Chrome/61.0.3163.100 Safari/537.36' -H 'Content-Type: application/x-www-form-urlencoded' -H 'Accept: */*' -H 'Referer: http://game208033.konggames.com/gamez/0020/8033/live/index.html?kongregate_game_version=1509033606&kongregate_host=www.kongregate.com' -H 'Connection: keep-alive' -H 'DNT: 1' --data 'password=db0243a64c88103183a7236725ac7243&client_time=1509560851&client_signature=9f1d904529eaed6e7149f64bc1db5985&unity=Unity5_4_2&client_version=77&api_stat_name=startHuntingBattle&api_stat_time=58&user_id=12562342&timestamp=1509560851&hash=4ff4e2a51b3d042845a1e32d7863ca40&syncode=2f52051529d82a5501432cb3550ccfef44956753b718fe774a82556828912a1e&client_version=77&device_type=Chrome+61.0.3163.100&os_version=Mac+OS+X+10_12_6&platform=Web&kong_id=9050087&kong_token=5d2404c160f039ce4482900ef92ae5b1012826c8bf688f6ddf7a89ccfe98dc33&kong_name=benprew&data_usage=0&battle_id=1509560809284&skip=0&card_uid=3&host_id=12562342' --compressed

{"time":1509560851,"version":"77.01","daily_bonus_time":"1509595261","battle_data":{"host_is_attacker":true,"battle_id":1509560809284,"host_id":"12562342","kv_store":[],"turn":{"-1":{"plays":[{"card_uid":51,"status":[]}]},"0":{"plays":[{"card_uid":151,"status":[]}]},"1":{"draws":[1,2,3],"plays":[{"card_uid":"3","status":[]}],"actions":[{"card_uid":-1,"skill_id":"protect","targets":["3"],"value":4,"status":[{"card_uid":3,"status_flag":"protect","value":4}]},{"card_uid":-1,"skill_id":"entrap","targets":["3"],"value":8,"status":[{"card_uid":3,"status_flag":"add_skill_counter","value":8},{"card_uid":3,"status_flag":"entrap","value":1}]}]},"2":{"draws":[101,102,103],"plays":[{"card_uid":101,"status":[]}],"actions":[{"card_uid":-2,"skill_id":"besiege","targets":[51],"value":11,"status":[{"card_uid":51,"status_flag":"h","value":62}]}]},"3":{"begin":[{"card_uid":"3","status_flag":"protect","value":0}],"end":[{"card_uid":"3","status_flag":"entrap","value":0},{"card_uid":"3","status_flag":"add_skill_counter","value":0}],"draws":[4]}},"attack_commander":"25293","attack_deck":{"1":"44459","2":"49531","3":"55459","4":"46433","5":"55459","6":"44459","7":"41021","8":"55459","9":"301"},"defend_commander":"25644","card_map":{"51":"50122","151":"50126","3":"55459","101":"2318"},"hds":9,"eds":10,"enemy_id":"9550907","attack_power":20,"effect_id":105,"battleground_effect":{"id":"105","name":"Iron Will","desc":"Assaults with Armor cannot be targeted by Jam, Weaken, or Sunder.","web_picture":"ironwill.png","global_start_time":"1508796003","global_end_time":"1511460000","value":"4","card_uid":0},"battleground_effects":{"global":{"105":{"id":"105","name":"Iron Will","desc":"Assaults with Armor cannot be targeted by Jam, Weaken, or Sunder.","web_picture":"ironwill.png","global_start_time":"1508796003","global_end_time":"1511460000","value":"4","card_uid":0}},"attacker":[],"defender":[]},"defend_power":10,"upkept":true,"enemy_name":"indengineer78","player_size":9,"enemy_size":10},"result":true,"guild_donations_enabled":0,"guild_supplies_enabled":1,"request":{"message":"playCard","user_id":"12562342","password":"db0243a64c88103183a7236725ac7243","client_time":"1509560851","client_signature":"9f1d904529eaed6e7149f64bc1db5985","unity":"Unity5_4_2","client_version":"77","api_stat_name":"startHuntingBattle","api_stat_time":"58","timestamp":"1509560851","hash":"4ff4e2a51b3d042845a1e32d7863ca40","syncode":"2f52051529d82a5501432cb3550ccfef44956753b718fe774a82556828912a1e","device_type":"Chrome 61.0.3163.100","os_version":"Mac OS X 10_12_6","platform":"Web","kong_id":"9050087","kong_token":"5d2404c160f039ce4482900ef92ae5b1012826c8bf688f6ddf7a89ccfe98dc33","kong_name":"benprew","data_usage":"0","battle_id":"1509560809284","skip":"0","card_uid":"3","host_id":"12562342"}}


# battle start response
{"time":1509561224,"version":"77.01","daily_bonus_time":"1509595261","battle_data":{"host_is_attacker":true,"battle_id":1509561224201,"host_id":"12562342","kv_store":[],"turn":{"-1":{"plays":[{"card_uid":51,"status":[]}]},"0":{"plays":[{"card_uid":151,"status":[]}]},"1":{"draws":[1,2,3]}},"attack_commander":"25293","attack_deck":{"1":"301","2":"55459","3":"46433","4":"49531","5":"44459","6":"55459","7":"55459","8":"44459","9":"41021"},"defend_commander":"25239","card_map":{"51":"50122","151":"50188"},"hds":9,"eds":10,"enemy_id":"4790231","attack_power":10,"upkept":true,"effect_id":105,"battleground_effect":{"id":"105","name":"Iron Will","desc":"Assaults with Armor cannot be targeted by Jam, Weaken, or Sunder.","web_picture":"ironwill.png","global_start_time":"1508796003","global_end_time":"1511460000","value":"4","card_uid":-3},"battleground_effects":{"global":{"105":{"id":"105","name":"Iron Will","desc":"Assaults with Armor cannot be targeted by Jam, Weaken, or Sunder.","web_picture":"ironwill.png","global_start_time":"1508796003","global_end_time":"1511460000","value":"4","card_uid":-3}},"attacker":[],"defender":[]},"enemy_name":"johnoe","player_size":9,"enemy_size":10},"result":true,"guild_donations_enabled":0,"guild_supplies_enabled":1,"user_data":{"user_id":"12562342","name":"benprew","level":"23","xp":"0","active_deck":"2","defense_deck":"1","location_id":"1","money":"459493","last_update_time":1509561190,"energy":"550","tokens":"115","is_elite":"0","last_day":"17471","consecutive_days":"1","daily_bonus":"0","num_cards":"1545","install_date":"2016-07-07 04:35:09","salvage":"541","gold_earned":"4924993","cards_earned":"64974","mission_wins":"4464","arena_wins":"0","arena_rating":"0","arena_losses":"0","stars":"1033","name_changes":"0","last_stam_update_time":"1509560399","stamina":38,"hunting_protection":0,"hunting_level":"0","hunting_elo":"2227765","hunting_wins":"19352","tutorial_id":"12","deck_power":"11225","faction_id":"148999003","looking_for_guild":"0","vote_id":"3800576","battle_energy":"25","battle_energy_update_time":"1509561000","level_name":"Tyrant Legend III","base_xp":"125000","next_xp":"125000","next_level_lp":"1250","prev_level_lp":"1000","promotion_points":0,"commander_unlock_rarity":4,"league_points":"1004","stamina_recharge_time":900,"energy_recharge_time":60,"battle_energy_recharge_time":1800,"flags":{"music":"0","sound":"0","tutorial":"-1","autopilot":"1","speed":"4","show_filters":"0","show_missions":"0","hand_pos":null,"guides_complete":[102,100,101,105,106,4,108,1,5,103,107,104,3,110,109,201,202]},"caps":{"max_salvage":2650,"max_cards":1000},"old_damage_calc":0},"hunting_targets":{"12232424":{"name":"NebulonPrime","user_id":12232424,"guild_name":"DireTide","hunting_elo":"3368966","level":"23","items":[],"commander":"25281","sp":0,"gold":132},"4748698":{"name":"Dubbya24","user_id":4748698,"guild_name":"WarHungryFTMFW","hunting_elo":"3275909","level":"24","items":[],"commander":"25644","sp":0,"gold":128},"2184586":{"name":"Jester2020","user_id":2184586,"guild_name":"ASYLUM","hunting_elo":"3141973","level":"24","items":[],"commander":"25269","sp":0,"gold":125},"3227556":{"name":"chrisbubb24","user_id":3227556,"guild_name":"NewHope","hunting_elo":"2933062","level":"24","items":[],"commander":"25680","sp":0,"gold":114},"3036316":{"name":"player1tyrant","user_id":3036316,"guild_name":"DeutscheHeldenDYN","hunting_elo":"2880433","level":"24","items":[],"commander":"25281","sp":0,"gold":114},"4139151":{"name":"BalticDemon","user_id":4139151,"guild_name":"TidalWaveFTMFW","hunting_elo":"2838092","level":"24","items":[],"commander":"25257","sp":0,"gold":111},"4422263":{"name":"optimusgtyrant","user_id":4422263,"guild_name":"NewHope","hunting_elo":"2758176","level":"24","items":[],"commander":"25680","sp":0,"gold":107},"4378246":{"name":"HqpH","user_id":4378246,"guild_name":"Predacons","hunting_elo":"2677714","level":"24","items":[],"commander":"25680","sp":0,"gold":107},"3022707":{"name":"tata_torgnole","user_id":3022707,"guild_name":"WarThirstyFTMFW","hunting_elo":"2611429","level":"24","items":[],"commander":"25239","sp":0,"gold":104},"2340600":{"name":"GeneralWedge","user_id":2340600,"guild_name":"AllSpark","hunting_elo":"2595185","level":"23","items":[],"commander":"25287","sp":0,"gold":104},"4790231":{"name":"johnoe","user_id":4790231,"guild_name":"WarThirstyFTMFW","hunting_elo":"2565281","level":"22","items":[],"commander":"25239","sp":0,"gold":101},"5597991":{"name":"Flavio_Lento","user_id":5597991,"guild_name":"AllHailBolas","hunting_elo":"2519159","level":"24","items":[],"commander":"25232","sp":0,"gold":101},"3912891":{"name":"SvenK32","user_id":3912891,"guild_name":"RisingChaosElite","hunting_elo":"2434680","level":"24","items":[],"commander":"25644","sp":0,"gold":97},"6355393":{"name":"MeSad","user_id":6355393,"guild_name":"ApsychoAAkillerA","hunting_elo":"1880475","level":"23","items":[],"commander":"25257","sp":0,"gold":87},"3973801":{"name":"RustyPanda","user_id":3973801,"guild_name":"AllHailBolas","hunting_elo":"1862586","level":"24","items":[],"commander":"25668","sp":0,"gold":87},"4380188":{"name":"Docknight","user_id":4380188,"guild_name":"brothas","hunting_elo":"1732944","level":"24","items":[],"commander":"25728","sp":0,"gold":87},"4781207":{"name":"roomiroomi","user_id":4781207,"guild_name":"MuryouFLASH","hunting_elo":"1117095","level":"23","items":[],"commander":"25293","sp":0,"gold":87},"3430761":{"name":"tkilowatt","user_id":3430761,"guild_name":"NewHope","hunting_elo":"997110","level":"23","items":[],"commander":"25728","sp":0,"gold":87}},"request":{"message":"startHuntingBattle","user_id":"12562342","password":"db0243a64c88103183a7236725ac7243","client_time":"1509561221","client_signature":"620d7a13a2664d8783a65ebe5f96851d","unity":"Unity5_4_2","client_version":"77","api_stat_name":"playCard","api_stat_time":"54","timestamp":"1509561221","hash":"f2eba524744cbf6e02167ad15619a6a0","syncode":"2f52051529d82a5501432cb3550ccfef44956753b718fe774a82556828912a1e","device_type":"Chrome 61.0.3163.100","os_version":"Mac OS X 10_12_6","platform":"Web","kong_id":"9050087","kong_token":"5d2404c160f039ce4482900ef92ae5b1012826c8bf688f6ddf7a89ccfe98dc33","kong_name":"benprew","data_usage":"201","target_user_id":"4790231"}}

# play card response - I played enclave chariot, opp played Dune Runner (quad full) (opp commander Daedalus, Dominion: Alpha Disintigrator)
{"time":1509561230,"version":"77.01","daily_bonus_time":"1509595261","battle_data":{"host_is_attacker":true,"battle_id":1509561224201,"host_id":"12562342","kv_store":[],"turn":{"-1":{"plays":[{"card_uid":51,"status":[]}]},"0":{"plays":[{"card_uid":151,"status":[]}]},"1":{"draws":[1,2,3],"plays":[{"card_uid":"2","status":[]}],"actions":[{"card_uid":-1,"skill_id":"protect","targets":["2"],"value":4,"status":[{"card_uid":2,"status_flag":"protect","value":4}]},{"card_uid":-1,"skill_id":"entrap","targets":["2"],"value":8,"status":[{"card_uid":2,"status_flag":"add_skill_counter","value":8},{"card_uid":2,"status_flag":"entrap","value":1}]}]},"2":{"draws":[101,102,103],"plays":[{"card_uid":101,"status":[]}],"actions":[{"card_uid":-2,"skill_id":"strike","targets":["2"],"value":6,"block":[{"card_uid":2,"skill":"protect","value":4}],"status":[{"card_uid":"2","status_flag":"h","value":62}]},{"card_uid":2,"skill_id":"barrier","targets":[2],"value":25,"block":[],"status":[{"card_uid":2,"status_flag":"protect","value":29},{"card_uid":2,"status_flag":"h","value":62},{"card_uid":2,"status_flag":"h","value":62}]}]},"3":{"begin":[{"card_uid":"2","status_flag":"protect","value":0}],"end":[{"card_uid":"2","status_flag":"entrap","value":0},{"card_uid":"2","status_flag":"add_skill_counter","value":0}],"draws":[4]}},"attack_commander":"25293","attack_deck":{"1":"301","2":"55459","3":"46433","4":"49531","5":"44459","6":"55459","7":"55459","8":"44459","9":"41021"},"defend_commander":"25239","card_map":{"51":"50122","151":"50188","2":"55459","101":"12481"},"hds":9,"eds":10,"enemy_id":"4790231","attack_power":20,"effect_id":105,"battleground_effect":{"id":"105","name":"Iron Will","desc":"Assaults with Armor cannot be targeted by Jam, Weaken, or Sunder.","web_picture":"ironwill.png","global_start_time":"1508796003","global_end_time":"1511460000","value":"4","card_uid":0},"battleground_effects":{"global":{"105":{"id":"105","name":"Iron Will","desc":"Assaults with Armor cannot be targeted by Jam, Weaken, or Sunder.","web_picture":"ironwill.png","global_start_time":"1508796003","global_end_time":"1511460000","value":"4","card_uid":0}},"attacker":[],"defender":[]},"defend_power":10,"upkept":true,"enemy_name":"johnoe","player_size":9,"enemy_size":10},"result":true,"guild_donations_enabled":0,"guild_supplies_enabled":1,"request":{"message":"playCard","user_id":"12562342","password":"db0243a64c88103183a7236725ac7243","client_time":"1509561229","client_signature":"d959a9973fde0fe717f2a2f057c31d76","unity":"Unity5_4_2","client_version":"77","api_stat_name":"setUserFlag","api_stat_time":"66","timestamp":"1509561229","hash":"e33ff0cf19fc2822c8bdf9e7125ba3ab","syncode":"2f52051529d82a5501432cb3550ccfef44956753b718fe774a82556828912a1e","device_type":"Chrome 61.0.3163.100","os_version":"Mac OS X 10_12_6","platform":"Web","kong_id":"9050087","kong_token":"5d2404c160f039ce4482900ef92ae5b1012826c8bf688f6ddf7a89ccfe98dc33","kong_name":"benprew","data_usage":"201","battle_id":"1509561224201","skip":"0","card_uid":"2","host_id":"12562342"}}
